solid minX
 facet normal -1 -0 -0
  outer loop
   vertex 0 0.5 1
   vertex 0 0.5 0
   vertex 0 -0.5 1
  endloop
 endfacet
 facet normal -1 0 0
  outer loop
   vertex 0 0.5 0
   vertex 0 -0.5 0
   vertex 0 -0.5 1
  endloop
 endfacet
endsolid minX
solid maxX
 facet normal 1 -0 0
  outer loop
   vertex 3.22 -0.5 1
   vertex 3.22 0.5 0
   vertex 3.22 0.5 1
  endloop
 endfacet
 facet normal 1 0 0
  outer loop
   vertex 3.22 -0.5 1
   vertex 3.22 -0.5 0
   vertex 3.22 0.5 0
  endloop
 endfacet
endsolid maxX
solid minY
 facet normal 0 -1 0
  outer loop
   vertex 0 -0.5 0
   vertex 3.22 -0.5 0
   vertex 3.22 -0.5 1
  endloop
 endfacet
 facet normal 0 -1 0
  outer loop
   vertex 0 -0.5 1
   vertex 0 -0.5 0
   vertex 3.22 -0.5 1
  endloop
 endfacet
endsolid minY
solid maxY
 facet normal 0 1 0
  outer loop
   vertex 3.22 0.5 1
   vertex 3.22 0.5 0
   vertex 0 0.5 0
  endloop
 endfacet
 facet normal 0 1 0
  outer loop
   vertex 3.22 0.5 1
   vertex 0 0.5 0
   vertex 0 0.5 1
  endloop
 endfacet
endsolid maxY
solid minZ
 facet normal 0 0 -1
  outer loop
   vertex 0 -0.5 0
   vertex 0 0.5 0
   vertex 3.22 0.5 0
  endloop
 endfacet
 facet normal 0 0 -1
  outer loop
   vertex 3.22 -0.5 0
   vertex 0 -0.5 0
   vertex 3.22 0.5 0
  endloop
 endfacet
endsolid minZ
solid maxZ
 facet normal 0 0 1
  outer loop
   vertex 3.22 0.5 1
   vertex 0 0.5 1
   vertex 0 -0.5 1
  endloop
 endfacet
 facet normal 0 0 1
  outer loop
   vertex 3.22 0.5 1
   vertex 0 -0.5 1
   vertex 3.22 -0.5 1
  endloop
 endfacet
endsolid maxZ
